^C:\USERS\IONUT\SOURCE\REPOS\GENETIC\GENETIC\DEBUG\FUNCTION.OBJ|C:\USERS\IONUT\SOURCE\REPOS\GENETIC\GENETIC\DEBUG\GENETICALGO.OBJ|C:\USERS\IONUT\SOURCE\REPOS\GENETIC\GENETIC\DEBUG\RANDOMGEN.OBJ|C:\USERS\IONUT\SOURCE\REPOS\GENETIC\GENETIC\DEBUG\SOURCE.OBJ
C:\USERS\IONUT\SOURCE\REPOS\GENETIC\DEBUG\GENETIC.EXE
C:\USERS\IONUT\SOURCE\REPOS\GENETIC\DEBUG\GENETIC.ILK
C:\USERS\IONUT\SOURCE\REPOS\GENETIC\DEBUG\GENETIC.PDB
